{
	"info": {
		"_postman_id": "d7732533-014f-4e7e-98a1-0282d7a8358c",
		"name": "hackathon",
		"schema": "https://schema.getpostman.com/json/collection/v2.1.0/collection.json"
	},
	"item": [
		{
			"name": "findall",
			"request": {
				"method": "GET",
				"header": [],
				"url": {
					"raw": "http://pipeline-predators-pipeline-predators.emeadocker3.conygre.com/api/v1/order",
					"protocol": "http",
					"host": [
						"pipeline-predators-pipeline-predators",
						"emeadocker3",
						"conygre",
						"com"
					],
					"path": [
						"api",
						"v1",
						"order"
					]
				}
			},
			"response": []
		},
		{
			"name": "find by id",
			"request": {
				"method": "GET",
				"header": [],
				"url": {
					"raw": "http://pipeline-predators-pipeline-predators.emeadocker3.conygre.com/api/v1/order/1",
					"protocol": "http",
					"host": [
						"pipeline-predators-pipeline-predators",
						"emeadocker3",
						"conygre",
						"com"
					],
					"path": [
						"api",
						"v1",
						"order",
						"1"
					]
				}
			},
			"response": []
		},
		{
			"name": "create",
			"request": {
				"method": "POST",
				"header": [],
				"body": {
					"mode": "raw",
					"raw": "{\r\n  \"buyOrSell\": \"buy\",\r\n  \"id\": 0,\r\n  \"price\": 6950,\r\n  \"statusCode\": 0,\r\n  \"stockTicker\": \"TSLA\",\r\n  \"volume\": 1\r\n}",
					"options": {
						"raw": {
							"language": "json"
						}
					}
				},
				"url": {
					"raw": "http://pipeline-predators-pipeline-predators.emeadocker3.conygre.com/api/v1/order/save",
					"protocol": "http",
					"host": [
						"pipeline-predators-pipeline-predators",
						"emeadocker3",
						"conygre",
						"com"
					],
					"path": [
						"api",
						"v1",
						"order",
						"save"
					]
				}
			},
			"response": []
		},
		{
			"name": "update",
			"request": {
				"method": "POST",
				"header": [],
				"body": {
					"mode": "raw",
					"raw": "{\r\n    \"id\": 1,\r\n    \"stockTicker\": \"TSLA\",\r\n    \"price\": 6950.0,\r\n    \"volume\": 1,\r\n    \"buyOrSell\": \"sell\",\r\n    \"statusCode\": 0,\r\n    \"createdTimestamp\": \"2021-10-08T13:14:53.000+00:00\"\r\n}",
					"options": {
						"raw": {
							"language": "json"
						}
					}
				},
				"url": {
					"raw": "http://pipeline-predators-pipeline-predators.emeadocker3.conygre.com/api/v1/order/update",
					"protocol": "http",
					"host": [
						"pipeline-predators-pipeline-predators",
						"emeadocker3",
						"conygre",
						"com"
					],
					"path": [
						"api",
						"v1",
						"order",
						"update"
					]
				}
			},
			"response": []
		},
		{
			"name": "delete",
			"request": {
				"method": "DELETE",
				"header": [],
				"url": {
					"raw": "http://pipeline-predators-pipeline-predators.emeadocker3.conygre.com/api/v1/order/removebyid/1",
					"protocol": "http",
					"host": [
						"pipeline-predators-pipeline-predators",
						"emeadocker3",
						"conygre",
						"com"
					],
					"path": [
						"api",
						"v1",
						"order",
						"removebyid",
						"1"
					]
				}
			},
			"response": []
		},
		{
			"name": "find orders by price range",
			"request": {
				"method": "GET",
				"header": [],
				"url": {
					"raw": "http://pipeline-predators-pipeline-predators.emeadocker3.conygre.com/api/v1/order/getByPriceRange/2000",
					"protocol": "http",
					"host": [
						"pipeline-predators-pipeline-predators",
						"emeadocker3",
						"conygre",
						"com"
					],
					"path": [
						"api",
						"v1",
						"order",
						"getByPriceRange",
						"2000"
					]
				}
			},
			"response": []
		},
		{
			"name": "find orders by price",
			"request": {
				"method": "GET",
				"header": [],
				"url": {
					"raw": "http://pipeline-predators-pipeline-predators.emeadocker3.conygre.com/api/v1/order/getByPrice/6950",
					"protocol": "http",
					"host": [
						"pipeline-predators-pipeline-predators",
						"emeadocker3",
						"conygre",
						"com"
					],
					"path": [
						"api",
						"v1",
						"order",
						"getByPrice",
						"6950"
					]
				}
			},
			"response": []
		},
		{
			"name": "find orders by name",
			"request": {
				"method": "GET",
				"header": [],
				"url": {
					"raw": "http://pipeline-predators-pipeline-predators.emeadocker3.conygre.com/api/v1/order/getByStockTicker/TSLA",
					"protocol": "http",
					"host": [
						"pipeline-predators-pipeline-predators",
						"emeadocker3",
						"conygre",
						"com"
					],
					"path": [
						"api",
						"v1",
						"order",
						"getByStockTicker",
						"TSLA"
					]
				}
			},
			"response": []
		},
		{
			"name": "find by status code",
			"request": {
				"method": "GET",
				"header": [],
				"url": {
					"raw": "http://pipeline-predators-pipeline-predators.emeadocker3.conygre.com/api/v1/order/getByStatusCode/0",
					"protocol": "http",
					"host": [
						"pipeline-predators-pipeline-predators",
						"emeadocker3",
						"conygre",
						"com"
					],
					"path": [
						"api",
						"v1",
						"order",
						"getByStatusCode",
						"0"
					]
				}
			},
			"response": []
		}
	]
}